\relax 
\providecommand\hyper@newdestlabel[2]{}
\citation{patterns}
\citation{patterns}
\@writefile{toc}{\contentsline {chapter}{\numberline {2}Web Concepts}{4}{chapter.2}}
\@writefile{lof}{\addvspace {10\p@ }}
\@writefile{lot}{\addvspace {10\p@ }}
\@writefile{toc}{\contentsline {section}{\numberline {2.1}MVC}{4}{section.2.1}}
\@writefile{lof}{\contentsline {figure}{\numberline {2.1}{\ignorespaces  Model View Controller Pattern \cite  {patterns}\relax }}{4}{figure.caption.3}}
\providecommand*\caption@xref[2]{\@setref\relax\@undefined{#1}}
\newlabel{fig:mvc}{{2.1}{4}{Model View Controller Pattern \cite {patterns}\relax }{figure.caption.3}{}}
\citation{patterns}
\citation{patterns}
\citation{patterns}
\@writefile{toc}{\contentsline {section}{\numberline {2.2}MVP}{5}{section.2.2}}
\@writefile{lof}{\contentsline {figure}{\numberline {2.2}{\ignorespaces  Model View Presenter Pattern \cite  {patterns}\relax }}{5}{figure.caption.4}}
\newlabel{fig:mvp}{{2.2}{5}{Model View Presenter Pattern \cite {patterns}\relax }{figure.caption.4}{}}
\citation{patterns}
\citation{patterns}
\@writefile{toc}{\contentsline {section}{\numberline {2.3}MVVM}{6}{section.2.3}}
\@writefile{lof}{\contentsline {figure}{\numberline {2.3}{\ignorespaces  Model View ViewModel Pattern \cite  {patterns}\relax }}{6}{figure.caption.5}}
\newlabel{fig:mvvm}{{2.3}{6}{Model View ViewModel Pattern \cite {patterns}\relax }{figure.caption.5}{}}
\@writefile{toc}{\contentsline {section}{\numberline {2.4}Single Page Applications}{7}{section.2.4}}
\@writefile{lof}{\contentsline {figure}{\numberline {2.4}{\ignorespaces  Single Page Application\relax }}{7}{figure.caption.6}}
\newlabel{fig:spa}{{2.4}{7}{Single Page Application\relax }{figure.caption.6}{}}
\citation{cop}
\citation{component-js}
\citation{cop}
\citation{cop-def}
\citation{cop}
\@writefile{toc}{\contentsline {section}{\numberline {2.5}Component Oriented Programming}{8}{section.2.5}}
\@writefile{toc}{\contentsline {subsection}{\numberline {2.5.1}Introduction}{8}{subsection.2.5.1}}
\@writefile{toc}{\contentsline {subsection}{\numberline {2.5.2}Components principles}{8}{subsection.2.5.2}}
\citation{web-important}
\@writefile{toc}{\contentsline {subsection}{\numberline {2.5.3}Web Components}{9}{subsection.2.5.3}}
\citation{mozzilewebcomponents}
\citation{modularcomponents}
\citation{auth0components}
\citation{auth0components}
\@writefile{toc}{\contentsline {subsection}{\numberline {2.5.4}Web Components as a standard}{10}{subsection.2.5.4}}
\@setckpt{./tex/chapter2}{
\setcounter{page}{12}
\setcounter{equation}{0}
\setcounter{enumi}{5}
\setcounter{enumii}{0}
\setcounter{enumiii}{0}
\setcounter{enumiv}{0}
\setcounter{footnote}{0}
\setcounter{mpfootnote}{0}
\setcounter{part}{0}
\setcounter{chapter}{2}
\setcounter{section}{5}
\setcounter{subsection}{4}
\setcounter{subsubsection}{0}
\setcounter{paragraph}{0}
\setcounter{subparagraph}{0}
\setcounter{figure}{4}
\setcounter{table}{0}
\setcounter{parentequation}{0}
\setcounter{Item}{5}
\setcounter{Hfootnote}{0}
\setcounter{bookmark@seq@number}{12}
\setcounter{ContinuedFloat}{0}
\setcounter{subfigure}{0}
\setcounter{subtable}{0}
\setcounter{lstnumber}{4}
\setcounter{section@level}{2}
\setcounter{lstlisting}{0}
}
