\relax 
\providecommand\hyper@newdestlabel[2]{}
\citation{worknme}
\citation{stout}
\citation{stout}
\@writefile{toc}{\contentsline {chapter}{\numberline {3}The evolution of JavaScript libraries and frameworks}{12}{chapter.3}}
\@writefile{lof}{\addvspace {10\p@ }}
\@writefile{lot}{\addvspace {10\p@ }}
\citation{knockout}
\citation{backbone}
\@writefile{toc}{\contentsline {section}{\numberline {3.1}KnockoutJS}{13}{section.3.1}}
\@writefile{toc}{\contentsline {section}{\numberline {3.2}BackboneJS}{13}{section.3.2}}
\citation{angularjs}
\citation{emberjs}
\@writefile{toc}{\contentsline {section}{\numberline {3.3}AngularJS}{14}{section.3.3}}
\@writefile{toc}{\contentsline {section}{\numberline {3.4}EmberJS}{15}{section.3.4}}
\citation{vuejs}
\@writefile{toc}{\contentsline {section}{\numberline {3.5}ReactJS}{16}{section.3.5}}
\@writefile{toc}{\contentsline {section}{\numberline {3.6}VueJS}{16}{section.3.6}}
\@writefile{toc}{\contentsline {section}{\numberline {3.7}Angular}{17}{section.3.7}}
\@writefile{toc}{\contentsline {section}{\numberline {3.8}Elm}{18}{section.3.8}}
\citation{webassembly}
\@writefile{toc}{\contentsline {section}{\numberline {3.9}WebAssembly}{19}{section.3.9}}
\@setckpt{./tex/chapter3}{
\setcounter{page}{20}
\setcounter{equation}{0}
\setcounter{enumi}{5}
\setcounter{enumii}{0}
\setcounter{enumiii}{0}
\setcounter{enumiv}{0}
\setcounter{footnote}{0}
\setcounter{mpfootnote}{0}
\setcounter{part}{0}
\setcounter{chapter}{3}
\setcounter{section}{9}
\setcounter{subsection}{0}
\setcounter{subsubsection}{0}
\setcounter{paragraph}{0}
\setcounter{subparagraph}{0}
\setcounter{figure}{0}
\setcounter{table}{0}
\setcounter{parentequation}{0}
\setcounter{Item}{5}
\setcounter{Hfootnote}{0}
\setcounter{bookmark@seq@number}{22}
\setcounter{ContinuedFloat}{0}
\setcounter{subfigure}{0}
\setcounter{subtable}{0}
\setcounter{lstnumber}{15}
\setcounter{section@level}{1}
\setcounter{lstlisting}{0}
}
