\BOOKMARK [0][-]{chapter.1}{Introduction}{}% 1
\BOOKMARK [1][-]{section.1.1}{JavaScript as a standard}{chapter.1}% 2
\BOOKMARK [0][-]{chapter.2}{Web Concepts}{}% 3
\BOOKMARK [1][-]{section.2.1}{MVC}{chapter.2}% 4
\BOOKMARK [1][-]{section.2.2}{MVP}{chapter.2}% 5
\BOOKMARK [1][-]{section.2.3}{MVVM}{chapter.2}% 6
\BOOKMARK [1][-]{section.2.4}{Single Page Applications}{chapter.2}% 7
\BOOKMARK [1][-]{section.2.5}{Component Oriented Programming}{chapter.2}% 8
\BOOKMARK [2][-]{subsection.2.5.1}{Introduction}{section.2.5}% 9
\BOOKMARK [2][-]{subsection.2.5.2}{Components principles}{section.2.5}% 10
\BOOKMARK [2][-]{subsection.2.5.3}{Web Components}{section.2.5}% 11
\BOOKMARK [2][-]{subsection.2.5.4}{Web Components as a standard}{section.2.5}% 12
\BOOKMARK [0][-]{chapter.3}{The evolution of JavaScript libraries and frameworks}{}% 13
\BOOKMARK [1][-]{section.3.1}{KnockoutJS}{chapter.3}% 14
\BOOKMARK [1][-]{section.3.2}{BackboneJS}{chapter.3}% 15
\BOOKMARK [1][-]{section.3.3}{AngularJS}{chapter.3}% 16
\BOOKMARK [1][-]{section.3.4}{EmberJS}{chapter.3}% 17
\BOOKMARK [1][-]{section.3.5}{ReactJS}{chapter.3}% 18
\BOOKMARK [1][-]{section.3.6}{VueJS}{chapter.3}% 19
\BOOKMARK [1][-]{section.3.7}{Angular}{chapter.3}% 20
\BOOKMARK [1][-]{section.3.8}{Elm}{chapter.3}% 21
\BOOKMARK [1][-]{section.3.9}{WebAssembly}{chapter.3}% 22
\BOOKMARK [0][-]{chapter.4}{Frameworks in detail}{}% 23
\BOOKMARK [1][-]{section.4.1}{AngularJS}{chapter.4}% 24
\BOOKMARK [2][-]{subsection.4.1.1}{Modules}{section.4.1}% 25
\BOOKMARK [2][-]{subsection.4.1.2}{Controllers}{section.4.1}% 26
\BOOKMARK [2][-]{subsection.4.1.3}{Scope}{section.4.1}% 27
\BOOKMARK [2][-]{subsection.4.1.4}{Watch and Digest}{section.4.1}% 28
\BOOKMARK [2][-]{subsection.4.1.5}{Services, Factories, Providers}{section.4.1}% 29
\BOOKMARK [1][-]{section.4.2}{ReactJS}{chapter.4}% 30
\BOOKMARK [2][-]{subsection.4.2.1}{Redux and Flux Architecture}{section.4.2}% 31
\BOOKMARK [1][-]{section.4.3}{VueJS}{chapter.4}% 32
\BOOKMARK [1][-]{section.4.4}{Angular}{chapter.4}% 33
\BOOKMARK [0][-]{chapter.5}{social.com - Social publishing application}{}% 34
\BOOKMARK [1][-]{section.5.1}{Application Requirement}{chapter.5}% 35
\BOOKMARK [1][-]{section.5.2}{Use Case Diagram}{chapter.5}% 36
\BOOKMARK [1][-]{section.5.3}{Application Server}{chapter.5}% 37
\BOOKMARK [1][-]{section.5.4}{Application Security}{chapter.5}% 38
\BOOKMARK [1][-]{section.5.5}{Angular1 implementation}{chapter.5}% 39
\BOOKMARK [1][-]{section.5.6}{Angular implementation}{chapter.5}% 40
\BOOKMARK [1][-]{section.5.7}{ReactJS implementation}{chapter.5}% 41
\BOOKMARK [1][-]{section.5.8}{VueJS implementation}{chapter.5}% 42
\BOOKMARK [1][-]{section.5.9}{Performance Comparison}{chapter.5}% 43
\BOOKMARK [1][-]{section.5.10}{Further implementation}{chapter.5}% 44
\BOOKMARK [0][-]{chapter.6}{Conclusion}{}% 45
