\relax 
\providecommand\hyper@newdestlabel[2]{}
\providecommand\HyperFirstAtBeginDocument{\AtBeginDocument}
\HyperFirstAtBeginDocument{\ifx\hyper@anchor\@undefined
\global\let\oldcontentsline\contentsline
\gdef\contentsline#1#2#3#4{\oldcontentsline{#1}{#2}{#3}}
\global\let\oldnewlabel\newlabel
\gdef\newlabel#1#2{\newlabelxx{#1}#2}
\gdef\newlabelxx#1#2#3#4#5#6{\oldnewlabel{#1}{{#2}{#3}}}
\AtEndDocument{\ifx\hyper@anchor\@undefined
\let\contentsline\oldcontentsline
\let\newlabel\oldnewlabel
\fi}
\fi}
\global\let\hyper@last\relax 
\gdef\HyperFirstAtBeginDocument#1{#1}
\providecommand\HyField@AuxAddToFields[1]{}
\providecommand\HyField@AuxAddToCoFields[2]{}
\@input{./tex/cover.aux}
\@input{./tex/toc.aux}
\@input{./tex/introduction.aux}
\@input{./tex/chapter2.aux}
\@input{./tex/chapter3.aux}
\@input{./tex/chapter4.aux}
\@input{./tex/chapter5.aux}
\@input{./tex/conclusion.aux}
\citation{*}
\bibdata{main}
\bibcite{patterns}{1}
\bibcite{jshistory}{2}
\bibcite{cop}{3}
\bibcite{component-js}{4}
\bibcite{cop-def}{5}
\bibcite{web-important}{6}
\bibcite{mozzilewebcomponents}{7}
\bibcite{modularcomponents}{8}
\bibcite{auth0components}{9}
\bibcite{worknme}{10}
\bibcite{stout}{11}
\bibcite{knockout}{12}
\bibcite{backbone}{13}
\bibcite{angularjs}{14}
\bibcite{emberjs}{15}
\bibcite{vuejs}{16}
\bibcite{webassembly}{17}
\bibcite{proangular}{18}
\bibcite{angularninja}{19}
\bibcite{reactjs}{20}
\bibcite{vuejsdepth}{21}
\bibcite{gothinkser}{22}
\bibcite{msdnsoftware}{23}
\bibcite{webcomponents}{24}
\bibcite{ng-book2}{25}
\bibcite{elm}{26}
\bibcite{spa}{27}
\bibstyle{ieeetr}
